<svg width="20" height="20" viewBox="0 0 20 20" fill="none" xmlns="http://www.w3.org/2000/svg">
<path fill-rule="evenodd" clip-rule="evenodd" d="M3.66714 2.51058C3.01833 2.51058 2.48237 3.04654 2.48237 3.69534V6.65726H0V3.69534C0 1.66432 1.66432 0 3.69534 0H6.65726V2.51058H3.66714ZM16.3047 2.48237C16.9535 2.48237 17.4895 3.01833 17.4895 3.66714V6.62905H19.9718V3.69534C20 1.66432 18.3357 0 16.3047 0H13.3146V2.48237H16.3047ZM17.4895 16.3047C17.4895 16.9535 16.9535 17.4894 16.3047 17.4894H13.3146V19.9718H16.3047C18.3357 19.9718 20 18.3075 20 16.2765V13.3145H17.4895V16.3047ZM3.69534 17.4894C3.04654 17.4894 2.51058 16.9535 2.51058 16.3047V13.3145H0V16.3047C0 18.3357 1.66432 20 3.69534 20H6.68547V17.4894H3.69534ZM3.21582 10.6065L8.54727 15.9379L16.756 7.7292L15.0071 5.98026L8.54727 12.4118L4.99297 8.85755L3.21582 10.6065Z" fill="#63666A"/>
</svg>
